Simulate using Parameter Uncertainty • monolix2rx
…
s
#> ── Solved rxode2 object ──
#> ── Parameters (x$params): ──
#> # A tibble: 10,000 × 10
#>    sim.id id    ka_pop  V_pop Cl_pop     a      b omega_ka   omega_V  omega_Cl
#>     <int> <fct>  <dbl>  <dbl>  <dbl> <dbl>  <dbl>    <dbl>     <dbl>     <dbl>
#>  1      1 1      0.281 -0.770  -3.22 0.475 0.0653   0.470  -0.208     0.483   
#>  2      1 2      0.281 -0.770  -3.22 0.475 0.0653   0.654   0.0861    0.129   
#>  3      1 3      0.281 -0.770  -3.22 0.475 0.0653  -0.0747  0.168     0.500   
#>  4      1 4      0.281 -0.770  -3.22 0.475 0.0653   0.126  -0.0226    0.479   
#>  5      1 5      0.281 -0.770  -3.22 0.475 0.0653  -0.162   0.000264 -0.205   
#>  6      1 6      0.281 -0.770  -3.22 0.475 0.0653  -1.13   -0.239     0.0941  
#>  7      1 7      0.281 -0.770  -3.22 0.475 0.0653  -0.335   0.0134    0.00490 
#>  8      1 8      0.281 -0.770  -3.22 0.475 0.0653  -0.869  -0.239     0.000511
#>  9      1 9      0.281 -0.770  -3.22 0.475 0.0653   1.35   -0.122     0.667   
#> 10      1 10     0.281 -0.770  -3.22 0.475 0.0653   0.314   0.0494   -0.552   
#> # ℹ 9,990 more rows
#> ── Initial Conditions (x$inits): ──
#>   depot central 
#>       0       0 
#> 
#> Simulation with uncertainty in:
#> • parameters (x$thetaMat for changes)
#> • omega matrix (x$omegaList)
#> • sigma matrix (x$sigmaList)
#> 
#> ── First part of data (object): ──
#> # A tibble: 150,000 × 12
#>   sim.id    id  time    ka     V     Cl    Cc  CONC ipredSim   sim     depot
#>    <int> <int> <dbl> <dbl> <dbl>  <dbl> <dbl> <dbl>    <dbl> <dbl>     <dbl>
#> 1      1     1     1  2.12 0.376 0.0646  8.36  8.36     8.36  8.50 0.481    
#> 2      1     1     2  2.12 0.376 0.0646  8.04  8.04     8.04  9.71 0.0577   
#> 3      1     1     3  2.12 0.376 0.0646  6.90  6.90     6.90  7.77 0.00694  
#> 4      1     1     4  2.12 0.376 0.0646  5.82  5.82     5.82  5.07 0.000833 
#> 5      1     1     5  2.12 0.376 0.0646  4.91  4.91     4.91  4.91 0.000100 
#> 6      1     1     6  2.12 0.376 0.0646  4.13  4.13     4.13  3.79 0.0000121
#> # ℹ 149,994 more rows
#> # ℹ 1 more variable: central <dbl>

Step 4: Summarize and plot

Since there is a bunch of data, a confidence band of the simulation
with uncertainty would be helpful.

One way to do that is to select the interesting components, create a
confidence interval and then plot the confidence bands:

sci <- confint(s, parm=c("CONC", "sim"))
#> summarizing data...done

sci
#> # A tibble: 90 × 7
#>        p1  time trt    p2.5   p50 p97.5 Percentile
#>     <dbl> <dbl> <fct> <dbl> <dbl> <dbl> <fct>     
#>  1 0.0250     1 CONC  0.741  2.40  4.39 2.5%      
#>  2 0.5        1 CONC  4.21   6.21  7.25 50%       
#>  3 0.975      1 CONC  7.89   9.32 11.1  97.5%     
#>  4 0.0250     2 CONC  1.33   3.80  5.59 2.5%      
#>  5 0.5        2 CONC  5.76   6.94  7.45 50%       
#>  6 0.975      2 CONC  8.22   9.14 10.6  97.5%     
#>  7 0.0250     3 CONC  1.79   4.36  5.42 2.5%      
#>  8 0.5        3 CONC  6.04   6.66  7.05 50%       
#>  9 0.975      3 CONC  7.79   8.71  9.99 97.5%     
#> 10 0.0250     4 CONC  2.12   4.36  5.26 2.5%      
#> # ℹ 80 more rows
…
